[
  {
    "line": 1,
    "elements": [
      {
        "BDD_TESTRUN_UUID": "7ace2bc1-1104-40dc-b503-4f36cb1655a1",
        "line": 3,
        "name": "bookHotel",
        "description": "",
        "id": "bookhotel;bookhotel",
        "type": "scenario",
        "keyword": "Scenario",
        "steps": [
          {
            "result": {
              "duration": 11602817300,
              "status": "passed"
            },
            "line": 4,
            "name": "go to url login tiket",
            "match": {
              "location": "loginTiket.go_to_url_login_tiket()"
            },
            "keyword": "Given ",
            "BDD_STEP_UUID": "87cfa882-25da-41c8-b99e-228eb7397564"
          },
          {
            "result": {
              "duration": 5846177000,
              "status": "passed"
            },
            "line": 5,
            "name": "user klik login with facebook",
            "match": {
              "location": "loginTiket.user_klik_login_with_facebook()"
            },
            "keyword": "When ",
            "BDD_STEP_UUID": "35eedff7-841a-40e3-8f60-bf794bff8cc8"
          },
          {
            "result": {
              "duration": 2872174700,
              "status": "passed"
            },
            "line": 6,
            "name": "user input email",
            "match": {
              "location": "loginTiket.user_input_email()"
            },
            "keyword": "Then ",
            "BDD_STEP_UUID": "4292b28e-9f56-4268-a816-476d020d1582"
          },
          {
            "result": {
              "duration": 4018965700,
              "status": "passed"
            },
            "line": 7,
            "name": "user input password",
            "match": {
              "location": "loginTiket.user_input_password()"
            },
            "keyword": "And ",
            "BDD_STEP_UUID": "6a9272b0-d24a-4e23-968d-ecf6949a1021"
          },
          {
            "result": {
              "duration": 3582293300,
              "status": "passed"
            },
            "line": 8,
            "name": "user klik login",
            "match": {
              "location": "loginTiket.user_klik_login()"
            },
            "keyword": "And ",
            "BDD_STEP_UUID": "c2d6e081-fd05-460b-a8bb-4ced86a2e1df"
          },
          {
            "result": {
              "duration": 10018137300,
              "status": "passed"
            },
            "line": 9,
            "name": "verify landing page login",
            "match": {
              "location": "loginTiket.verify_landing_page_login()"
            },
            "keyword": "And ",
            "BDD_STEP_UUID": "9cf9d8bb-ff64-4934-a7a8-a18d237b685e"
          }
        ]
      }
    ],
    "name": "bookHotel",
    "description": "",
    "id": "bookhotel",
    "keyword": "Feature",
    "uri": "C:/Users/arief.hakim/git/tiket.com/katalon-web-automation-tiket/./Include/features/tiket/loginTiketWithFB.feature",
    "tags": []
  }
]